Data mask programming patterns — topic-data-mask-programming • rlang
…
Character vector of names

The .data pronoun can only be subsetted with single column names. It doesn't support single-bracket indexing:

mtcars %>% dplyr::summarise(.data[c("cyl", "am")])
#> Error in `dplyr::summarise()`:
#> ! Problem while computing `..1 = .data[c("cyl", "am")]`.
#> Caused by error in `.data[c("cyl", "am")]`:
#> ! `[` is not supported by the `.data` pronoun, use `[[` or $ instead.

There is no plural variant of .data built in tidy eval. Instead, we'll used the all_of() operator available in tidy selections to supply character vectors. This is straightforward in functions that take tidy selections, like tidyr::pivot_longer():

vars <- c("cyl", "am")
mtcars %>% tidyr::pivot_longer(all_of(vars))
#> # A tibble: 64 x 11
#>     mpg  disp    hp  drat    wt  qsec    vs  gear  carb name  value
#>   <dbl> <dbl> <dbl> <dbl> <dbl> <dbl> <dbl> <dbl> <dbl> <chr> <dbl>
#> 1    21   160   110   3.9  2.62  16.5     0     4     4 cyl       6
#> 2    21   160   110   3.9  2.62  16.5     0     4     4 am        1
#> 3    21   160   110   3.9  2.88  17.0     0     4     4 cyl       6
#> 4    21   160   110   3.9  2.88  17.0     0     4     4 am        1
#> # ... with 60 more rows
…
